…
## -- Attaching packages --------------------------------------- tidyverse 1.3.1 --

## v ggplot2 3.3.5     v purrr   0.3.4
## v tibble  3.1.6     v dplyr   1.0.7
## v tidyr   1.1.4     v stringr 1.4.0
## v readr   2.1.1     v forcats 0.5.1

## -- Conflicts ------------------------------------------ tidyverse_conflicts() --
## x dplyr::filter() masks stats::filter()
## x dplyr::lag()    masks stats::lag()

flights

## # A tibble: 336,776 x 19
##     year month   day dep_time sched_dep_time dep_delay arr_time sched_arr_time
##    <int> <int> <int>    <int>          <int>     <dbl>    <int>          <int>
##  1  2013     1     1      517            515         2      830            819
##  2  2013     1     1      533            529         4      850            830
##  3  2013     1     1      542            540         2      923            850
##  4  2013     1     1      544            545        -1     1004           1022
##  5  2013     1     1      554            600        -6      812            837
##  6  2013     1     1      554            558        -4      740            728
##  7  2013     1     1      555            600        -5      913            854
##  8  2013     1     1      557            600        -3      709            723
##  9  2013     1     1      557            600        -3      838            846
## 10  2013     1     1      558            600        -2      753            745
## # ... with 336,766 more rows, and 11 more variables: arr_delay <dbl>,
## #   carrier <chr>, flight <int>, tailnum <chr>, origin <chr>, dest <chr>,
## #   air_time <dbl>, distance <dbl>, hour <dbl>, minute <dbl>, time_hour <dttm>

Filter rows with filter()

通过给赋值语句加上()可以达到同时赋值和打印结果的效果：

(jan1 <- flights %>% 
    filter(month == 1, day == 1))

## # A tibble: 842 x 19
##     year month   day dep_time sched_dep_time dep_delay arr_time sched_arr_time
##    <int> <int> <int>    <int>          <int>     <dbl>    <int>          <int>
##  1  2013     1     1      517            515         2      830            819
##  2  2013     1     1      533            529         4      850            830
##  3  2013     1     1      542            540         2      923            850
##  4  2013     1     1      544            545        -1     1004           1022
##  5  2013     1     1      554            600        -6      812            837
##  6  2013     1     1      554            558        -4      740            728
##  7  2013     1     1      555            600        -5      913            854
##  8  2013     1     1      557            600        -3      709            723
##  9  2013     1     1      557            600        -3      838            846
## 10  2013     1     1      558            600        -2      753            745
## # ... with 832 more rows, and 11 more variables: arr_delay <dbl>,
## #   carrier <chr>, flight <int>, tailnum <chr>, origin <chr>, dest <chr>,
## #   air_time <dbl>, distance <dbl>, hour <dbl>, minute <dbl>, time_hour <dttm>
…
sqrt(2) ^ 2 == 2

## [1] FALSE

near(sqrt(2) ^ 2, 2)

## [1] TRUE

选取11月份和12月份航班的多种方法：

flights %>% 
  filter(month == 11 | month == 12)

## # A tibble: 55,403 x 19
##     year month   day dep_time sched_dep_time dep_delay arr_time sched_arr_time
##    <int> <int> <int>    <int>          <int>     <dbl>    <int>          <int>
##  1  2013    11     1        5           2359         6      352            345
##  2  2013    11     1       35           2250       105      123           2356
##  3  2013    11     1      455            500        -5      641            651
##  4  2013    11     1      539            545        -6      856            827
##  5  2013    11     1      542            545        -3      831            855
##  6  2013    11     1      549            600       -11      912            923
##  7  2013    11     1      550            600       -10      705            659
##  8  2013    11     1      554            600        -6      659            701
##  9  2013    11     1      554            600        -6      826            827
## 10  2013    11     1      554            600        -6      749            751
## # ... with 55,393 more rows, and 11 more variables: arr_delay <dbl>,
## #   carrier <chr>, flight <int>, tailnum <chr>, origin <chr>, dest <chr>,
## #   air_time <dbl>, distance <dbl>, hour <dbl>, minute <dbl>, time_hour <dttm>

flights %>% 
  filter(month %in% c(11, 12))

## # A tibble: 55,403 x 19
##     year month   day dep_time sched_dep_time dep_delay arr_time sched_arr_time
##    <int> <int> <int>    <int>          <int>     <dbl>    <int>          <int>
##  1  2013    11     1        5           2359         6      352            345
##  2  2013    11     1       35           2250       105      123           2356
##  3  2013    11     1      455            500        -5      641            651
##  4  2013    11     1      539            545        -6      856            827
##  5  2013    11     1      542            545        -3      831            855
##  6  2013    11     1      549            600       -11      912            923
##  7  2013    11     1      550            600       -10      705            659
##  8  2013    11     1      554            600        -6      659            701
##  9  2013    11     1      554            600        -6      826            827
## 10  2013    11     1      554            600        -6      749            751
## # ... with 55,393 more rows, and 11 more variables: arr_delay <dbl>,
## #   carrier <chr>, flight <int>, tailnum <chr>, origin <chr>, dest <chr>,
## #   air_time <dbl>, distance <dbl>, hour <dbl>, minute <dbl>, time_hour <dttm>
…
Exercises

Find all filghts that

Had an arrival delay of two or more hours:

flights %>% 
  filter(arr_delay >=120)

## # A tibble: 10,200 x 19
##     year month   day dep_time sched_dep_time dep_delay arr_time sched_arr_time
##    <int> <int> <int>    <int>          <int>     <dbl>    <int>          <int>
##  1  2013     1     1      811            630       101     1047            830
##  2  2013     1     1      848           1835       853     1001           1950
##  3  2013     1     1      957            733       144     1056            853
##  4  2013     1     1     1114            900       134     1447           1222
##  5  2013     1     1     1505           1310       115     1638           1431
##  6  2013     1     1     1525           1340       105     1831           1626
##  7  2013     1     1     1549           1445        64     1912           1656
##  8  2013     1     1     1558           1359       119     1718           1515
##  9  2013     1     1     1732           1630        62     2028           1825
## 10  2013     1     1     1803           1620       103     2008           1750
## # ... with 10,190 more rows, and 11 more variables: arr_delay <dbl>,
## #   carrier <chr>, flight <int>, tailnum <chr>, origin <chr>, dest <chr>,
## #   air_time <dbl>, distance <dbl>, hour <dbl>, minute <dbl>, time_hour <dttm>

Flew to Houston(IAH or HOU)

flights %>% 
  filter(dest %in% c("IAH", "HOU") )

## # A tibble: 9,313 x 19
##     year month   day dep_time sched_dep_time dep_delay arr_time sched_arr_time
##    <int> <int> <int>    <int>          <int>     <dbl>    <int>          <int>
##  1  2013     1     1      517            515         2      830            819
##  2  2013     1     1      533            529         4      850            830
##  3  2013     1     1      623            627        -4      933            932
##  4  2013     1     1      728            732        -4     1041           1038
##  5  2013     1     1      739            739         0     1104           1038
##  6  2013     1     1      908            908         0     1228           1219
##  7  2013     1     1     1028           1026         2     1350           1339
##  8  2013     1     1     1044           1045        -1     1352           1351
##  9  2013     1     1     1114            900       134     1447           1222
## 10  2013     1     1     1205           1200         5     1503           1505
## # ... with 9,303 more rows, and 11 more variables: arr_delay <dbl>,
## #   carrier <chr>, flight <int>, tailnum <chr>, origin <chr>, dest <chr>,
## #   air_time <dbl>, distance <dbl>, hour <dbl>, minute <dbl>, time_hour <dttm>

Were operated by United(UA),American (AA)or Delta(DL)

flights %>% 
  filter(carrier %in% c("UA", "AA", "DL") )

## # A tibble: 139,504 x 19
##     year month   day dep_time sched_dep_time dep_delay arr_time sched_arr_time
##    <int> <int> <int>    <int>          <int>     <dbl>    <int>          <int>
##  1  2013     1     1      517            515         2      830            819
##  2  2013     1     1      533            529         4      850            830
##  3  2013     1     1      542            540         2      923            850
##  4  2013     1     1      554            600        -6      812            837
##  5  2013     1     1      554            558        -4      740            728
##  6  2013     1     1      558            600        -2      753            745
##  7  2013     1     1      558            600        -2      924            917
##  8  2013     1     1      558            600        -2      923            937
##  9  2013     1     1      559            600        -1      941            910
## 10  2013     1     1      559            600        -1      854            902
## # ... with 139,494 more rows, and 11 more variables: arr_delay <dbl>,
## #   carrier <chr>, flight <int>, tailnum <chr>, origin <chr>, dest <chr>,
## #   air_time <dbl>, distance <dbl>, hour <dbl>, minute <dbl>, time_hour <dttm>

Departed in summer(July,August,and September)

flights %>% 
  filter(month >= 7 & month <=9)

## # A tibble: 86,326 x 19
##     year month   day dep_time sched_dep_time dep_delay arr_time sched_arr_time
##    <int> <int> <int>    <int>          <int>     <dbl>    <int>          <int>
##  1  2013     7     1        1           2029       212      236           2359
##  2  2013     7     1        2           2359         3      344            344
##  3  2013     7     1       29           2245       104      151              1
##  4  2013     7     1       43           2130       193      322             14
##  5  2013     7     1       44           2150       174      300            100
##  6  2013     7     1       46           2051       235      304           2358
##  7  2013     7     1       48           2001       287      308           2305
##  8  2013     7     1       58           2155       183      335             43
##  9  2013     7     1      100           2146       194      327             30
## 10  2013     7     1      100           2245       135      337            135
## # ... with 86,316 more rows, and 11 more variables: arr_delay <dbl>,
## #   carrier <chr>, flight <int>, tailnum <chr>, origin <chr>, dest <chr>,
## #   air_time <dbl>, distance <dbl>, hour <dbl>, minute <dbl>, time_hour <dttm>

flights %>% 
  filter(between(month, 7, 9))

## # A tibble: 86,326 x 19
##     year month   day dep_time sched_dep_time dep_delay arr_time sched_arr_time
##    <int> <int> <int>    <int>          <int>     <dbl>    <int>          <int>
##  1  2013     7     1        1           2029       212      236           2359
##  2  2013     7     1        2           2359         3      344            344
##  3  2013     7     1       29           2245       104      151              1
##  4  2013     7     1       43           2130       193      322             14
##  5  2013     7     1       44           2150       174      300            100
##  6  2013     7     1       46           2051       235      304           2358
##  7  2013     7     1       48           2001       287      308           2305
##  8  2013     7     1       58           2155       183      335             43
##  9  2013     7     1      100           2146       194      327             30
## 10  2013     7     1      100           2245       135      337            135
## # ... with 86,316 more rows, and 11 more variables: arr_delay <dbl>,
## #   carrier <chr>, flight <int>, tailnum <chr>, origin <chr>, dest <chr>,
## #   air_time <dbl>, distance <dbl>, hour <dbl>, minute <dbl>, time_hour <dttm>
…
matches("(.)\\1")
selects variables that match a regular expression.

This one matches any variables that contain repeated characters.

num_range("x", 1:3)
matches x1,x2 and x3

rename() can be used to rename variables:

flights %>% 
  rename(tail_num = tailnum) %>% 
  select(tail_num)

## # A tibble: 336,776 x 1
##    tail_num
##    <chr>   
##  1 N14228  
##  2 N24211  
##  3 N619AA  
##  4 N804JB  
##  5 N668DN  
##  6 N39463  
##  7 N516JB  
##  8 N829AS  
##  9 N593JB  
## 10 N3ALAA  
## # ... with 336,766 more rows

If you have a handful of variable you’d like to move to the start of the data frame,you can use select() in conjunction with the everything():

flights %>% 
  select(time_hour, air_time, everything())

## # A tibble: 336,776 x 19
##    time_hour           air_time  year month   day dep_time sched_dep_time
##    <dttm>                 <dbl> <int> <int> <int>    <int>          <int>
##  1 2013-01-01 05:00:00      227  2013     1     1      517            515
##  2 2013-01-01 05:00:00      227  2013     1     1      533            529
##  3 2013-01-01 05:00:00      160  2013     1     1      542            540
##  4 2013-01-01 05:00:00      183  2013     1     1      544            545
##  5 2013-01-01 06:00:00      116  2013     1     1      554            600
##  6 2013-01-01 05:00:00      150  2013     1     1      554            558
##  7 2013-01-01 06:00:00      158  2013     1     1      555            600
##  8 2013-01-01 06:00:00       53  2013     1     1      557            600
##  9 2013-01-01 06:00:00      140  2013     1     1      557            600
## 10 2013-01-01 06:00:00      138  2013     1     1      558            600
## # ... with 336,766 more rows, and 12 more variables: dep_delay <dbl>,
## #   arr_time <int>, sched_arr_time <int>, arr_delay <dbl>, carrier <chr>,
## #   flight <int>, tailnum <chr>, origin <chr>, dest <chr>, distance <dbl>,
## #   hour <dbl>, minute <dbl>

select() can be used in conjunction with any_of():

vars <- c("year", "month", "day", "dep_delay", "arr_delay")
flights %>% 
  select(any_of(vars))

## # A tibble: 336,776 x 5
##     year month   day dep_delay arr_delay
##    <int> <int> <int>     <dbl>     <dbl>
##  1  2013     1     1         2        11
##  2  2013     1     1         4        20
##  3  2013     1     1         2        33
##  4  2013     1     1        -1       -18
##  5  2013     1     1        -6       -25
##  6  2013     1     1        -4        12
##  7  2013     1     1        -5        19
##  8  2013     1     1        -3       -14
##  9  2013     1     1        -3        -8
## 10  2013     1     1        -2         8
## # ... with 336,766 more rows

Add new variables with mutate()

mutate() always adds new colnums at the end of the dataset.

If you only want to keep the new variable, use tansmute():

flights %>% 
  transmute(gain = dep_delay - arr_delay,
            hours = air_time / 60,
            gain_per_hour = gain / hours)

## # A tibble: 336,776 x 3
##     gain hours gain_per_hour
##    <dbl> <dbl>         <dbl>
##  1    -9 3.78          -2.38
##  2   -16 3.78          -4.23
##  3   -31 2.67         -11.6 
##  4    17 3.05           5.57
##  5    19 1.93           9.83
##  6   -16 2.5           -6.4 
##  7   -24 2.63          -9.11
##  8    11 0.883         12.5 
##  9     5 2.33           2.14
## 10   -10 2.3           -4.35
## # ... with 336,766 more rows
…
not_cancelled <- flights %>% 
  filter(!is.na(dep_delay), !is.na(arr_delay))
not_cancelled %>% 
  group_by(year, month, day) %>% 
  summarise(mean = mean(dep_delay))

## `summarise()` has grouped output by 'year', 'month'. You can override using the `.groups` argument.

## # A tibble: 365 x 4
## # Groups:   year, month [12]
##     year month   day  mean
##    <int> <int> <int> <dbl>
##  1  2013     1     1 11.4 
##  2  2013     1     2 13.7 
##  3  2013     1     3 10.9 
##  4  2013     1     4  8.97
##  5  2013     1     5  5.73
##  6  2013     1     6  7.15
##  7  2013     1     7  5.42
##  8  2013     1     8  2.56
##  9  2013     1     9  2.30
## 10  2013     1    10  2.84
## # ... with 355 more rows

(delays1 <- not_cancelled %>% 
  group_by(tailnum) %>% 
  summarise(
    delay = mean(arr_delay)
  ))

## # A tibble: 4,037 x 2
##    tailnum  delay
##    <chr>    <dbl>
##  1 D942DN  31.5  
##  2 N0EGMQ   9.98 
##  3 N10156  12.7  
##  4 N102UW   2.94 
##  5 N103US  -6.93 
##  6 N104UW   1.80 
##  7 N10575  20.7  
##  8 N105UW  -0.267
##  9 N107US  -5.73 
## 10 N108UW  -1.25 
## # ... with 4,027 more rows
…
batters %>% 
  arrange(desc(ba))

## # A tibble: 19,898 x 3
##    playerID     ba    ab
##    <chr>     <dbl> <int>
##  1 abramge01     1     1
##  2 alanirj01     1     1
##  3 alberan01     1     1
##  4 banisje01     1     1
##  5 bartocl01     1     1
##  6 bassdo01      1     1
##  7 birasst01     1     2
##  8 bruneju01     1     1
##  9 burnscb01     1     1
## 10 cammaer01     1     1
## # ... with 19,888 more rows
…
Measures of rank:min(x),quantile(x,0.25),max(x);

quantiles are a generalisation of the median.quantile(x,0.25) will find a value of that is greater than 25% of the values,and less than the remaining 75%.

Measures of position:first(x),nth(x,2),last(x).
These work similarity to x[1],x[2],x[length(x)]

#取出每一天的最大值和最小值
not_cancelled %>% 
  group_by(year, month, day) %>% 
  mutate(r = min_rank(desc(dep_time))) %>% 
  filter(r %in% range(r))

## # A tibble: 770 x 20
## # Groups:   year, month, day [365]
##     year month   day dep_time sched_dep_time dep_delay arr_time sched_arr_time
##    <int> <int> <int>    <int>          <int>     <dbl>    <int>          <int>
##  1  2013     1     1      517            515         2      830            819
##  2  2013     1     1     2356           2359        -3      425            437
##  3  2013     1     2       42           2359        43      518            442
##  4  2013     1     2     2354           2359        -5      413            437
##  5  2013     1     3       32           2359        33      504            442
##  6  2013     1     3     2349           2359       -10      434            445
##  7  2013     1     4       25           2359        26      505            442
##  8  2013     1     4     2358           2359        -1      429            437
##  9  2013     1     4     2358           2359        -1      436            445
## 10  2013     1     5       14           2359        15      503            445
## # ... with 760 more rows, and 12 more variables: arr_delay <dbl>,
## #   carrier <chr>, flight <int>, tailnum <chr>, origin <chr>, dest <chr>,
## #   air_time <dbl>, distance <dbl>, hour <dbl>, minute <dbl>, time_hour <dttm>,
## #   r <int>

Counts:n(),sum(!is.na(x)),To count the number of distinct(unique) values,ues n_distinct(x).

Counts are so useful that dplyr provides a simple helper if all you want is a count:

not_cancelled %>% 
  count(dest)

## # A tibble: 104 x 2
##    dest      n
##    <chr> <int>
##  1 ABQ     254
##  2 ACK     264
##  3 ALB     418
##  4 ANC       8
##  5 ATL   16837
##  6 AUS    2411
##  7 AVL     261
##  8 BDL     412
##  9 BGR     358
## 10 BHM     269
## # ... with 94 more rows
…
